# Blender v2.73 (sub 0) OBJ File: 'untitled.blend'
# www.blender.org
mtllib Ballon_4.mtl
o Sphere
v -0.555570 3.596066 -0.058708
v -0.555570 1.547263 -0.058708
v -0.831470 2.086016 -0.058708
v -0.980785 2.545300 -0.058708
v -0.980785 2.959687 -0.058708
v -0.831470 3.320167 -0.058708
v -0.195090 0.794970 -0.058708
v -0.195090 3.745382 -0.058708
v -0.906127 2.545300 -0.434038
v -0.906127 2.959687 -0.434038
v -0.768178 3.320167 -0.376898
v -0.513280 3.596066 -0.271316
v -0.513280 1.547263 -0.271316
v -0.768178 2.086016 -0.376898
v -0.180240 0.794970 -0.133366
v -0.180240 3.745382 -0.133366
v -0.693520 2.545300 -0.752228
v -0.693520 2.959687 -0.752228
v -0.587938 3.320167 -0.646646
v -0.392847 3.596066 -0.451556
v -0.392847 1.547263 -0.451556
v -0.587938 2.086016 -0.646646
v -0.137949 0.794970 -0.196658
v -0.137950 3.745382 -0.196658
v -0.375330 2.545300 -0.964836
v -0.375330 2.959687 -0.964836
v -0.318189 3.320167 -0.826886
v -0.212607 3.596066 -0.571988
v -0.212607 1.547263 -0.571988
v -0.318189 2.086016 -0.826886
v -0.074658 0.794970 -0.238948
v -0.074658 3.745382 -0.238948
v 0.000000 2.545300 -1.039493
v 0.000000 2.959687 -1.039493
v 0.000000 3.320167 -0.890178
v 0.000000 3.596066 -0.614278
v 0.000000 1.547263 -0.614278
v 0.000000 2.086016 -0.890178
v 0.000000 0.794970 -0.253798
v 0.000000 3.745382 -0.253799
v 0.375331 2.545300 -0.964835
v 0.375331 2.959687 -0.964835
v 0.318190 3.320167 -0.826886
v 0.212608 3.596066 -0.571988
v 0.212608 1.547263 -0.571988
v 0.318190 2.086016 -0.826886
v 0.074658 0.794970 -0.238948
v 0.074658 3.745382 -0.238948
v 0.693520 2.545300 -0.752228
v 0.693520 2.959687 -0.752228
v 0.587938 3.320167 -0.646646
v 0.392848 3.596066 -0.451556
v 0.392848 1.547263 -0.451556
v 0.587938 2.086016 -0.646646
v 0.137950 0.794970 -0.196658
v 0.137950 3.745382 -0.196658
v 0.906128 2.545300 -0.434038
v 0.906128 2.959687 -0.434038
v 0.768178 3.320167 -0.376898
v 0.513280 3.596066 -0.271316
v 0.513280 1.547263 -0.271316
v 0.768178 2.086016 -0.376898
v 0.180240 0.794970 -0.133366
v 0.180240 3.745382 -0.133366
v 0.980785 2.545300 -0.058708
v 0.980785 2.959687 -0.058708
v 0.831470 3.320167 -0.058708
v 0.555571 3.596066 -0.058708
v 0.555570 1.547263 -0.058708
v 0.831470 2.086016 -0.058708
v 0.195091 0.794970 -0.058708
v 0.195091 3.745382 -0.058708
v 0.906127 2.545300 0.316622
v 0.906127 2.959687 0.316622
v 0.768178 3.320167 0.259482
v 0.513280 3.596066 0.153900
v 0.513280 1.547263 0.153900
v 0.768178 2.086016 0.259482
v 0.180240 0.794970 0.015950
v 0.180240 3.745382 0.015950
v 0.693520 2.545300 0.634812
v 0.693520 2.959687 0.634812
v 0.587938 3.320167 0.529230
v 0.392848 3.596066 0.334140
v 0.392848 1.547263 0.334139
v 0.587938 2.086016 0.529230
v 0.137950 0.794970 0.079242
v 0.137950 3.745382 0.079242
v 0.375330 2.545300 0.847419
v 0.375330 2.959687 0.847419
v 0.318190 3.320167 0.709469
v 0.212608 3.596066 0.454572
v 0.212608 1.547263 0.454572
v 0.318190 2.086016 0.709469
v 0.074658 0.794970 0.121532
v 0.074658 3.745382 0.121532
v 0.000000 2.545300 0.922077
v 0.000000 2.959687 0.922077
v 0.000000 3.320167 0.772761
v 0.000000 3.596066 0.496862
v 0.000000 1.547263 0.496862
v 0.000000 2.086016 0.772761
v 0.000000 0.794970 0.136382
v 0.000000 3.745382 0.136382
v -0.375330 2.545300 0.847419
v -0.375330 2.959687 0.847419
v -0.318189 3.320167 0.709469
v -0.212607 3.596066 0.454572
v -0.212607 1.547263 0.454572
v -0.318189 2.086016 0.709469
v -0.074657 0.794970 0.121532
v -0.074658 3.745382 0.121532
v -0.693519 2.545300 0.634811
v -0.693519 2.959687 0.634811
v -0.587937 3.320167 0.529229
v -0.392847 3.596066 0.334139
v -0.392847 1.547263 0.334139
v -0.587937 2.086016 0.529229
v -0.137949 0.794970 0.079242
v -0.137949 3.745382 0.079242
v -0.906127 2.545300 0.316622
v -0.906127 2.959687 0.316622
v -0.768177 3.320167 0.259481
v -0.513280 3.596066 0.153899
v -0.513279 1.547263 0.153899
v -0.768177 2.086016 0.259481
v -0.180240 0.794970 0.015950
v -0.180240 3.745382 0.015950
v 0.000000 3.655677 -0.058708
v 0.000000 1.024340 -0.058708
v -0.208174 0.234906 -0.307771
v -0.208892 0.230833 -0.284317
v -0.231628 0.239041 -0.307771
v -0.102662 0.833290 -0.200632
v -0.103380 0.829217 -0.177178
v -0.126116 0.837426 -0.200632
v -0.252615 0.366627 0.193907
v -0.252615 0.366627 -0.311323
v 0.252615 0.366627 -0.311323
v 0.252615 0.366627 0.193907
v -0.252615 0.006218 0.193907
v -0.252615 0.006218 -0.311323
v 0.252615 0.006218 -0.311323
v 0.252615 0.006218 0.193907
v 0.221802 0.234906 0.188521
v 0.224386 0.230833 0.165199
v 0.245182 0.239041 0.190389
v 0.125161 0.833290 0.073318
v 0.127745 0.829217 0.049996
v 0.148540 0.837426 0.075186
v -0.223564 0.234906 0.157223
v -0.200114 0.230833 0.158052
v -0.223675 0.239041 0.180677
v -0.115930 0.833290 0.052218
v -0.092479 0.829217 0.053046
v -0.116040 0.837426 0.075672
v 0.239100 0.234906 -0.272855
v 0.215659 0.230833 -0.271813
v 0.237342 0.239041 -0.296243
v 0.140172 0.833290 -0.159609
v 0.116730 0.829217 -0.158567
v 0.138414 0.837426 -0.182997
vt 0.530095 0.293858
vt 0.535170 0.390886
vt 0.454627 0.389976
vt 0.326267 0.096466
vt 0.272796 0.110086
vt 0.232188 0.047975
vt 0.461813 0.293086
vt 0.475092 0.172610
vt 0.520716 0.173126
vt 0.202428 0.130430
vt 0.535170 0.469184
vt 0.594073 0.285943
vt 0.610638 0.381550
vt 0.530095 0.527049
vt 0.461813 0.526277
vt 0.454627 0.468273
vt 0.313365 0.283640
vt 0.253710 0.300886
vt 0.229685 0.209558
vt 0.610638 0.459848
vt 0.594073 0.519134
vt 0.509214 0.527049
vt 0.566834 0.527181
vt 0.588463 0.581522
vt 0.669541 0.363387
vt 0.317579 0.398939
vt 0.098150 0.678158
vt 0.078558 0.702591
vt 0.069130 0.690207
vt 0.455965 0.551924
vt 0.514383 0.598055
vt 0.487141 0.628854
vt 0.182818 0.007715
vt 0.172532 0.065222
vt 0.523475 0.004385
vt 0.563466 0.167838
vt 0.575895 0.691161
vt 0.579308 0.652582
vt 0.592828 0.652613
vt 0.549962 0.581434
vt 0.322730 0.729430
vt 0.284907 0.714505
vt 0.293743 0.701718
vt 0.433539 0.166368
vt 0.508463 0.006242
vt 0.326135 0.576435
vt 0.326135 0.637060
vt 0.313674 0.578436
vt 0.352363 0.581421
vt 0.415195 0.598018
vt 0.393110 0.658315
vt 0.566814 0.658418
vt 0.557248 0.669234
vt 0.472384 0.669143
vt 0.472359 0.712787
vt 0.326312 0.652546
vt 0.393072 0.723634
vt 0.381270 0.378956
vt 0.381270 0.457254
vt 0.326267 0.437803
vt 0.514276 0.784067
vt 0.455805 0.830312
vt 0.415088 0.784031
vt 0.326267 0.359505
vt 0.352996 0.267254
vt 0.399624 0.283744
vt 0.466910 0.000000
vt 0.477851 0.003869
vt 0.886273 0.825328
vt 0.948501 0.837177
vt 0.927947 0.930618
vt 0.326135 0.690067
vt 0.298306 0.649328
vt 0.312783 0.642762
vt 0.964073 0.716408
vt 0.487069 0.753144
vt 0.552058 0.698707
vt 0.307024 0.693136
vt 0.988694 0.928054
vt 0.958730 0.997436
vt 0.897983 1.000000
vt 0.322730 0.690067
vt 0.284907 0.655757
vt 0.098150 0.719170
vt 0.088748 0.712762
vt 0.352237 0.800838
vt 0.326267 0.729595
vt 0.987917 0.550514
vt 1.000000 0.550004
vt 0.998483 0.714955
vt 0.922494 0.708490
vt 1.000000 0.835004
vt 0.822790 0.801259
vt 0.854543 0.916640
vt 0.824580 0.986022
vt 0.941311 0.486018
vt 0.900297 0.455052
vt 0.945301 0.389329
vt 0.779660 0.888249
vt 0.552067 0.683381
vt 0.958421 0.542087
vt 0.973316 0.547734
vt 0.749696 0.957631
vt 0.684732 0.919149
vt 0.908865 0.281246
vt 0.975755 0.315914
vt 0.714696 0.849767
vt 0.566777 0.723737
vt 0.549836 0.800851
vt 0.843276 0.670609
vt 0.880075 0.692408
vt 0.845817 0.507367
vt 0.807927 0.487729
vt 0.557223 0.712878
vt 0.934291 0.207013
vt 0.870525 0.183674
vt 0.915890 0.109156
vt 0.579264 0.729631
vt 0.592784 0.729662
vt 0.509025 0.855430
vt 0.817698 0.646413
vt 0.767716 0.768635
vt 0.729436 0.732423
vt 0.878411 0.354661
vt 0.803194 0.327130
vt 0.605278 0.723825
vt 0.779825 0.402323
vt 0.718707 0.388587
vt 0.843591 0.425663
vt 0.765320 0.472134
vt 0.152001 0.830962
vt 0.163945 0.773442
vt 0.163945 0.833813
vt 0.673105 0.308519
vt 0.731100 0.310927
vt 0.623917 0.784318
vt 0.588337 0.800939
vt 0.724482 0.462956
vt 0.691631 0.461591
vt 0.138229 0.824957
vt 0.761554 0.237512
vt 0.833648 0.253715
vt 0.809406 0.169937
vt 0.128550 0.341508
vt 0.082048 0.257475
vt 0.153131 0.233528
vt 0.993679 0.008699
vt 0.958497 0.124751
vt 0.875052 0.099978
vt 0.027257 0.277754
vt 0.000000 0.198626
vt 0.054792 0.178347
vt 0.614844 0.713010
vt 0.761887 0.525935
vt 0.124726 0.816711
vt 0.964377 0.000000
vt 0.978718 0.003223
vt 0.125875 0.154400
vt 0.047372 0.105844
vt 0.082100 0.358700
vt 0.620034 0.683537
vt 0.620026 0.698862
vt 0.282903 0.572402
vt 0.272005 0.576435
vt 0.163053 0.449093
vt 0.107634 0.085542
vt 0.665940 0.669585
vt 0.651159 0.753519
vt 0.113548 0.807480
vt 0.059328 0.046382
vt 0.614869 0.669365
vt 0.194089 0.437606
vt 0.234355 0.424041
vt 0.297043 0.567638
vt 0.188811 0.321207
vt 0.106397 0.798669
vt 0.605315 0.658506
vt 0.275230 0.601940
vt 0.268600 0.611611
vt 0.099593 0.032817
vt 0.142957 0.019239
vt 0.312270 0.562870
vt 0.299624 0.583985
vt 0.286124 0.592239
vt 0.326267 0.558824
vt 0.277719 0.410463
vt 0.492442 0.006061
vt 0.936517 0.525935
vt 0.945498 0.534432
vt 0.644009 0.270545
vt 0.624024 0.598305
vt 0.651230 0.629229
vt 0.400455 0.527049
vt 0.596832 0.157549
vt 0.213107 0.000000
vt 0.277519 0.036429
vt 0.300053 0.189215
vt 0.193640 0.687877
vt 0.193640 0.806491
vt 0.188651 0.806346
vt 0.094173 0.720728
vt 0.094173 0.823565
vt 0.090085 0.822007
vt 0.284907 0.760767
vt 0.277877 0.760849
vt 0.277877 0.637142
vt 0.294786 0.734157
vt 0.289847 0.734016
vt 0.294786 0.729430
vt 0.665940 0.550656
vt 0.668897 0.546851
vt 0.668897 0.553292
vt 0.188651 0.687732
vt 0.090085 0.719170
vt 0.284907 0.637060
vt 0.200491 0.581145
vt 0.268600 0.576435
vt 0.268600 0.677052
vt 0.200491 0.681762
vt 0.270463 0.697356
vt 0.270463 0.781997
vt 0.106397 0.690541
vt 0.182127 0.687732
vt 0.182127 0.770633
vt 0.069130 0.763261
vt 0.000000 0.779672
vt 0.000000 0.694568
vt 0.000000 0.576435
vt 0.106397 0.576435
vt 0.106397 0.678158
vt 0.200491 0.590724
vt 0.200491 0.687732
vt 0.106397 0.673443
vt 0.200491 0.766402
vt 0.106397 0.773442
vt 0.069130 0.678158
vt 0.000000 0.678158
vt 0.082016 0.719275
vt 0.082016 0.843429
vt 0.078191 0.843324
vt 0.082016 0.843233
vt 0.082016 0.719433
vt 0.085771 0.719170
vt 0.182127 0.689156
vt 0.188651 0.792689
vt 0.299718 0.729430
vt 0.299718 0.734155
vt 0.294786 0.729578
vt 0.665940 0.543363
vt 0.668974 0.540081
vt 0.668974 0.546851
vt 0.078191 0.719170
vt 0.085771 0.842971
vt 0.182127 0.794113
vt 0.197889 0.688499
vt 0.197889 0.806968
vt 0.193640 0.806201
vt 0.074145 0.837932
vt 0.074145 0.719170
vt 0.078191 0.720002
vt 0.277877 0.756762
vt 0.270949 0.756356
vt 0.270949 0.637060
vt 0.284907 0.734157
vt 0.285054 0.729430
vt 0.289847 0.734157
vt 0.665940 0.536731
vt 0.669463 0.533621
vt 0.669463 0.540081
vt 0.193640 0.687732
vt 0.078191 0.838763
vt 0.277877 0.637466
vt 0.098150 0.834848
vt 0.094173 0.835913
vt 0.069130 0.819226
vt 0.069130 0.719170
vt 0.099360 0.678488
vt 0.106397 0.792702
vt 0.665940 0.530333
vt 0.669487 0.527049
vt 0.089922 0.723157
vt 0.085771 0.723157
vt 0.088357 0.719170
vt 0.094173 0.720236
vt 0.074145 0.819237
vt 0.099360 0.793032
vt 0.669541 0.441685
vt 0.402383 0.155350
vt 0.993679 0.425855
vt 0.400266 0.855430
vt 0.669541 0.807052
vt 0.669541 0.386545
vt 0.747547 0.522713
vt 0.665915 0.713230
vt 0.535191 0.000772
vn -0.529300 -0.303800 -0.792200
vn -0.908700 0.376400 -0.180700
vn -0.496500 -0.448800 -0.743000
vn -0.908700 0.376400 0.180700
vn -0.555600 0.000000 -0.831500
vn -0.792200 -0.303800 -0.529300
vn -0.514700 0.376400 -0.770300
vn -0.934400 -0.303800 0.185900
vn -0.770300 0.376400 -0.514700
vn -0.593600 0.700200 -0.396600
vn -0.980800 0.000000 -0.195100
vn -0.876400 -0.448800 0.174300
vn 0.235800 0.905400 0.352900
vn -0.139300 0.700200 -0.700200
vn -0.700200 0.700200 0.139300
vn -0.752500 -0.425300 -0.502800
vn -0.743000 -0.448800 -0.496500
vn 0.352900 0.905400 0.235800
vn -0.396600 0.700200 -0.593600
vn 0.426600 -0.640600 0.638500
vn -0.216100 0.921200 -0.323500
vn -0.174300 -0.448800 -0.876400
vn -0.502800 -0.425300 -0.752500
vn 0.638500 -0.640600 0.426600
vn 0.180700 0.376400 -0.908700
vn 0.139300 0.700200 -0.700200
vn -0.075900 0.921200 -0.381600
vn 0.396600 0.700200 -0.593600
vn 0.514700 0.376400 -0.770300
vn 0.195100 0.000000 -0.980800
vn 0.700200 0.700200 -0.139300
vn 0.185900 -0.303800 -0.934400
vn 0.174300 -0.448800 -0.876400
vn 0.176600 -0.425300 -0.887600
vn 0.792200 -0.303800 -0.529300
vn -0.638500 -0.640600 0.426600
vn 0.743000 -0.448800 -0.496500
vn 0.323500 0.921200 -0.216100
vn 0.149800 -0.640600 0.753100
vn 0.555600 0.000000 -0.831500
vn -0.149800 -0.640600 0.753100
vn -0.426600 -0.640600 0.638500
vn -0.082800 0.905400 0.416300
vn 0.770300 0.376400 -0.514700
vn 0.529300 -0.303800 -0.792200
vn 0.502800 -0.425300 -0.752500
vn 0.593600 0.700200 -0.396600
vn 0.752500 -0.425300 -0.502800
vn 0.496500 -0.448800 -0.743000
vn 0.216100 0.921200 -0.323500
vn 0.934400 -0.303800 -0.185900
vn 0.831500 0.000000 -0.555600
vn 0.908700 0.376400 0.180700
vn 0.980800 -0.000000 -0.195100
vn -0.235800 0.905400 0.352900
vn 0.908700 0.376400 -0.180700
vn 0.887600 -0.425300 -0.176600
vn 0.876400 -0.448800 -0.174300
vn 0.980800 0.000000 0.195100
vn 0.831500 0.000000 0.555600
vn 0.934400 -0.303800 0.185900
vn 0.381600 0.921200 -0.075900
vn 0.381600 0.921200 0.075900
vn -0.753100 -0.640600 0.149800
vn 0.876400 -0.448800 0.174300
vn 0.593600 0.700200 0.396600
vn -0.416300 0.905400 0.082800
vn 0.496500 -0.448800 0.743000
vn 0.887600 -0.425300 0.176600
vn 0.323500 0.921200 0.216100
vn 0.700200 0.700200 0.139300
vn 0.743000 -0.448800 0.496500
vn 0.792200 -0.303800 0.529300
vn 0.555600 -0.000000 0.831500
vn -0.235800 0.905400 -0.352900
vn -0.416300 0.905400 -0.082800
vn 0.180700 0.376400 0.908700
vn 0.514700 0.376400 0.770300
vn 0.139300 0.700200 0.700200
vn -0.753100 -0.640600 -0.149800
vn 0.396600 0.700200 0.593600
vn -0.180700 0.376400 0.908700
vn 0.216100 0.921200 0.323500
vn -0.139300 0.700200 0.700200
vn -0.638500 -0.640600 -0.426600
vn -0.352900 0.905400 -0.235800
vn 0.195100 -0.000000 0.980800
vn 0.185900 -0.303800 0.934400
vn -0.529300 -0.303800 0.792200
vn 0.502800 -0.425300 0.752500
vn 0.174300 -0.448800 0.876400
vn -0.195100 -0.000000 0.980800
vn -0.082800 0.905400 -0.416300
vn 0.075900 0.921200 0.381600
vn -0.426600 -0.640600 -0.638500
vn 0.176600 -0.425300 0.887600
vn -0.514700 0.376400 0.770300
vn -0.185900 -0.303800 0.934400
vn 0.235800 0.905400 -0.352900
vn -0.176600 -0.425300 0.887600
vn -0.770300 0.376400 0.514700
vn -0.216100 0.921200 0.323500
vn -0.075900 0.921200 0.381600
vn 0.082800 0.905400 -0.416300
vn -0.149800 -0.640600 -0.753100
vn -0.555600 -0.000000 0.831500
vn -0.396600 0.700200 0.593600
vn -0.323500 0.921200 0.216100
vn -0.502800 -0.425300 0.752500
vn -0.496500 -0.448800 0.743000
vn -0.743000 -0.448800 0.496500
vn 0.149800 -0.640600 -0.753100
vn 0.416300 0.905400 -0.082800
vn -0.831500 -0.000000 0.555600
vn 0.426600 -0.640600 -0.638500
vn -0.593600 0.700200 0.396600
vn -0.752500 -0.425300 0.502800
vn 0.352900 0.905400 -0.235800
vn 0.753100 -0.640600 -0.149800
vn 0.638500 -0.640600 -0.426600
vn 0.416300 0.905400 0.082800
vn -0.887600 -0.425300 0.176600
vn 0.753100 -0.640600 0.149800
vn -0.176600 -0.425300 -0.887600
vn 0.082800 0.905400 0.416300
vn 0.075900 0.921200 -0.381600
vn -0.352900 0.905400 0.235800
vn 0.770300 0.376400 0.514700
vn 0.752500 -0.425300 0.502800
vn 0.529300 -0.303800 0.792200
vn -0.174300 -0.448800 0.876400
vn -0.792200 -0.303800 0.529300
vn -0.934400 -0.303800 -0.185900
vn -0.381600 0.921200 0.075900
vn -0.180700 0.376400 -0.908700
vn -0.185900 -0.303800 -0.934400
vn -0.381600 0.921200 -0.075900
vn -0.887600 -0.425300 -0.176600
vn -0.700200 0.700200 -0.139300
vn -0.831500 0.000000 -0.555600
vn -0.980800 -0.000000 0.195100
vn -0.323500 0.921200 -0.216100
vn -0.876400 -0.448800 -0.174300
vn -0.195100 0.000000 -0.980800
vn 0.984800 -0.173600 -0.000000
vn 0.030200 0.171000 -0.984800
vn -0.717700 0.001900 0.696400
vn -0.171000 -0.969800 -0.173600
vn 0.171000 0.969800 0.173600
vn 1.000000 0.000000 0.000000
vn 0.000000 0.000000 1.000000
vn -1.000000 0.000000 0.000000
vn 0.000000 0.000000 -1.000000
vn 0.000000 -1.000000 0.000000
vn 0.000000 1.000000 0.000000
vn -0.981700 -0.173600 -0.078400
vn -0.108500 0.171000 0.979300
vn 0.770900 0.001900 -0.637000
vn 0.156600 -0.969800 0.186700
vn -0.156600 0.969800 -0.186700
vn 0.004600 -0.173600 -0.984800
vn -0.984700 0.171000 -0.034800
vn 0.693000 0.001900 0.721000
vn -0.174500 -0.969800 0.170200
vn 0.174500 0.969800 -0.170200
vn 0.073800 -0.173600 0.982000
vn 0.984300 0.171000 -0.043800
vn -0.748200 0.001900 -0.663500
vn 0.160300 -0.969800 -0.183500
vn -0.160300 0.969800 0.183500
vn -0.323500 0.921200 0.216200
vn -0.323500 0.921200 -0.216200
usemtl Material.007
s off
f 22/1/1 17/2/1 25/3/1
f 10/4/2 5/5/2 6/6/2
f 30/7/3 29/8/3 21/9/3
f 6/6/4 5/5/4 122/10/4
f 25/3/5 17/2/5 18/11/5
f 22/1/6 14/12/6 9/13/6
f 19/14/7 27/15/7 26/16/7
f 3/17/8 126/18/8 121/19/8
f 18/11/9 10/20/9 11/21/9
f 19/22/10 11/23/10 12/24/10
f 10/20/11 9/13/11 4/25/11
f 126/18/12 3/17/12 2/26/12
f 129/27/13 32/28/13 24/29/13
f 27/30/14 28/31/14 36/32/14
f 1/33/15 6/6/15 123/34/15
f 15/35/16 13/36/16 21/9/16
f 13/36/17 14/12/17 22/1/17
f 129/37/18 24/38/18 16/39/18
f 27/30/19 19/22/19 20/40/19
f 130/41/20 23/42/20 31/43/20
f 28/31/21 20/40/21 24/38/21
f 37/44/22 29/8/22 30/7/22
f 23/45/23 21/9/23 29/8/23
f 23/46/24 130/47/24 15/48/24
f 34/49/25 35/50/25 43/51/25
f 43/51/26 35/50/26 36/32/26
f 28/31/27 32/52/27 40/53/27
f 43/51/28 44/54/28 52/55/28
f 42/56/29 43/51/29 51/57/29
f 33/58/30 34/59/30 42/60/30
f 68/61/31 67/62/31 59/63/31
f 33/58/32 41/64/32 46/65/32
f 37/44/33 38/66/33 46/65/33
f 47/67/34 39/68/34 37/44/34
f 62/69/35 54/70/35 49/71/35
f 130/72/36 55/73/36 63/74/36
f 53/75/37 54/70/37 62/69/37
f 60/76/38 52/55/38 56/77/38
f 39/78/39 130/41/39 31/43/39
f 41/79/40 42/80/40 50/81/40
f 130/41/41 39/78/41 47/82/41
f 130/72/42 47/83/42 55/73/42
f 129/27/43 48/84/43 40/85/43
f 59/63/44 58/86/44 50/87/44
f 41/79/45 49/71/45 54/70/45
f 55/88/46 47/89/46 45/90/46
f 52/55/47 60/76/47 59/63/47
f 55/88/48 53/75/48 61/91/48
f 53/75/49 45/90/49 46/92/49
f 56/77/50 52/55/50 44/54/50
f 70/93/51 62/69/51 57/94/51
f 49/71/52 50/81/52 58/95/52
f 67/96/53 75/97/53 74/98/53
f 65/99/54 57/94/54 58/95/54
f 48/100/55 129/37/55 56/77/55
f 58/86/56 59/63/56 67/62/56
f 71/101/57 63/102/57 61/91/57
f 61/91/58 62/69/58 70/93/58
f 65/99/59 66/103/59 74/104/59
f 81/105/60 73/106/60 74/98/60
f 70/93/61 65/99/61 73/107/61
f 72/108/62 68/61/62 60/76/62
f 76/109/63 68/61/63 72/108/63
f 71/47/64 130/72/64 63/74/64
f 77/110/65 69/111/65 70/93/65
f 75/97/66 76/112/66 84/113/66
f 64/114/67 129/37/67 72/108/67
f 86/115/68 94/116/68 93/117/68
f 71/101/69 69/111/69 77/110/69
f 76/109/70 80/118/70 88/119/70
f 75/120/71 67/62/71 68/61/71
f 85/121/72 77/110/72 78/122/72
f 86/123/73 78/122/73 73/107/73
f 81/105/74 82/124/74 90/125/74
f 129/37/75 96/126/75 88/119/75
f 72/108/76 129/37/76 80/118/76
f 90/125/77 91/127/77 99/128/77
f 82/124/78 83/129/78 91/127/78
f 99/128/79 91/127/79 92/130/79
f 79/131/80 130/132/80 71/133/80
f 91/127/81 83/129/81 84/113/81
f 106/134/82 98/135/82 99/128/82
f 92/136/83 84/137/83 88/119/83
f 99/128/84 100/138/84 108/139/84
f 87/140/85 130/132/85 79/131/85
f 129/37/86 88/119/86 80/118/86
f 97/141/87 89/142/87 90/125/87
f 102/143/88 94/116/88 89/142/88
f 110/144/89 105/145/89 113/146/89
f 87/147/90 85/148/90 93/117/90
f 94/116/91 102/143/91 101/149/91
f 97/150/92 98/151/92 106/152/92
f 129/37/93 104/153/93 96/126/93
f 100/138/94 92/130/94 96/154/94
f 95/155/95 130/132/95 87/140/95
f 101/149/96 103/156/96 95/157/96
f 114/158/97 106/152/97 107/159/97
f 102/160/98 97/150/98 105/145/98
f 129/37/99 120/161/99 112/162/99
f 111/163/100 103/164/100 101/165/100
f 114/158/101 115/166/101 123/34/101
f 112/162/102 120/161/102 116/167/102
f 100/168/103 104/153/103 112/162/103
f 129/37/104 112/162/104 104/153/104
f 103/169/105 130/132/105 95/155/105
f 113/146/106 105/145/106 106/152/106
f 115/166/107 107/159/107 108/170/107
f 116/167/108 120/161/108 128/171/108
f 109/172/109 117/173/109 119/174/109
f 109/172/110 110/144/110 118/175/110
f 117/173/111 118/175/111 126/18/111
f 130/132/112 103/169/112 111/176/112
f 129/37/113 8/177/113 128/171/113
f 113/146/114 114/158/114 122/10/114
f 119/178/115 130/47/115 111/179/115
f 115/166/116 116/180/116 124/181/116
f 127/182/117 119/174/117 117/173/117
f 129/37/118 128/171/118 120/161/118
f 7/183/119 130/47/119 127/184/119
f 127/184/120 130/47/120 119/178/120
f 129/37/121 16/39/121 8/177/121
f 7/185/122 127/182/122 125/186/122
f 130/47/123 7/183/123 15/48/123
f 37/44/124 39/68/124 31/187/124
f 32/28/125 129/27/125 40/85/125
f 44/54/126 36/32/126 40/53/126
f 56/77/127 129/37/127 64/114/127
f 82/124/128 74/98/128 75/97/128
f 87/188/129 79/189/129 77/110/129
f 94/116/130 86/115/130 81/105/130
f 101/165/131 102/160/131 110/144/131
f 113/146/132 121/19/132 126/18/132
f 9/13/133 14/12/133 3/190/133
f 1/191/134 124/192/134 128/171/134
f 34/49/135 26/193/135 27/30/135
f 30/7/136 25/3/136 33/58/136
f 1/191/137 8/177/137 16/39/137
f 2/194/138 13/36/138 15/35/138
f 12/195/139 11/196/139 6/6/139
f 9/13/140 10/20/140 18/11/140
f 4/197/141 121/19/141 122/10/141
f 12/24/142 16/39/142 24/38/142
f 3/190/143 14/12/143 13/36/143
f 33/58/144 25/3/144 26/16/144
f 135/198/145 132/199/145 131/200/145
f 134/201/146 131/202/146 133/203/146
f 135/204/147 136/205/147 133/206/147
f 131/207/148 132/208/148 133/209/148
f 134/210/149 136/211/149 135/212/149
f 134/213/145 135/198/145 131/200/145
f 136/214/146 134/201/146 133/203/146
f 132/215/147 135/204/147 133/206/147
f 142/216/150 138/217/150 137/218/150
f 143/219/151 139/220/151 138/221/151
f 144/222/152 140/223/152 139/224/152
f 141/225/153 137/226/153 140/227/153
f 138/228/154 139/229/154 140/230/154
f 143/231/155 142/232/155 141/233/155
f 141/219/150 142/216/150 137/218/150
f 142/234/151 143/219/151 138/221/151
f 143/235/152 144/222/152 139/224/152
f 144/236/153 141/225/153 140/227/153
f 137/237/154 138/228/154 140/230/154
f 144/229/155 143/231/155 141/233/155
f 149/238/156 146/239/156 145/240/156
f 148/241/157 145/242/157 147/243/157
f 149/244/158 150/213/158 147/245/158
f 145/246/159 146/247/159 147/248/159
f 148/249/160 150/250/160 149/251/160
f 148/252/156 149/238/156 145/240/156
f 150/253/157 148/241/157 147/243/157
f 146/254/158 149/244/158 147/245/158
f 155/255/161 152/256/161 151/257/161
f 154/258/162 151/259/162 153/260/162
f 155/261/163 156/262/163 153/263/163
f 151/264/164 152/265/164 153/266/164
f 154/267/165 156/268/165 155/269/165
f 154/270/161 155/255/161 151/257/161
f 156/271/162 154/258/162 153/260/162
f 152/272/163 155/261/163 153/263/163
f 161/84/166 158/273/166 157/274/166
f 160/275/167 157/276/167 159/259/167
f 161/277/168 162/230/168 159/278/168
f 157/279/169 158/280/169 159/268/169
f 160/281/170 162/282/170 161/283/170
f 160/284/166 161/84/166 157/274/166
f 162/285/167 160/275/167 159/259/167
f 158/286/168 161/277/168 159/278/168
f 30/7/1 22/1/1 25/3/1
f 11/196/2 10/4/2 6/6/2
f 22/1/3 30/7/3 21/9/3
f 123/34/4 6/6/4 122/10/4
f 26/16/5 25/3/5 18/11/5
f 17/2/6 22/1/6 9/13/6
f 18/11/7 19/14/7 26/16/7
f 4/197/8 3/17/8 121/19/8
f 19/14/9 18/11/9 11/21/9
f 20/40/10 19/22/10 12/24/10
f 5/287/11 10/20/11 4/25/11
f 125/186/12 126/18/12 2/26/12
f 35/50/14 27/30/14 36/32/14
f 124/181/15 1/33/15 123/34/15
f 23/45/16 15/35/16 21/9/16
f 21/9/17 13/36/17 22/1/17
f 28/31/19 27/30/19 20/40/19
f 32/52/21 28/31/21 24/38/21
f 38/66/22 37/44/22 30/7/22
f 31/187/23 23/45/23 29/8/23
f 42/56/25 34/49/25 43/51/25
f 44/54/26 43/51/26 36/32/26
f 36/32/27 28/31/27 40/53/27
f 51/57/28 43/51/28 52/55/28
f 50/87/29 42/56/29 51/57/29
f 41/64/30 33/58/30 42/60/30
f 60/76/31 68/61/31 59/63/31
f 38/66/32 33/58/32 46/65/32
f 45/288/33 37/44/33 46/65/33
f 45/288/34 47/67/34 37/44/34
f 57/94/35 62/69/35 49/71/35
f 61/91/37 53/75/37 62/69/37
f 64/114/38 60/76/38 56/77/38
f 49/71/40 41/79/40 50/81/40
f 51/57/44 59/63/44 50/87/44
f 46/92/45 41/79/45 54/70/45
f 53/75/46 55/88/46 45/90/46
f 51/57/47 52/55/47 59/63/47
f 63/102/48 55/88/48 61/91/48
f 54/70/49 53/75/49 46/92/49
f 48/100/50 56/77/50 44/54/50
f 65/99/51 70/93/51 57/94/51
f 57/94/52 49/71/52 58/95/52
f 66/289/53 67/96/53 74/98/53
f 66/103/54 65/99/54 58/95/54
f 66/290/56 58/86/56 67/62/56
f 69/111/57 71/101/57 61/91/57
f 69/111/58 61/91/58 70/93/58
f 73/107/59 65/99/59 74/104/59
f 82/124/60 81/105/60 74/98/60
f 78/122/61 70/93/61 73/107/61
f 64/114/62 72/108/62 60/76/62
f 80/118/63 76/109/63 72/108/63
f 78/122/65 77/110/65 70/93/65
f 83/129/66 75/97/66 84/113/66
f 85/148/68 86/115/68 93/117/68
f 79/189/69 71/101/69 77/110/69
f 84/137/70 76/109/70 88/119/70
f 76/109/71 75/120/71 68/61/71
f 86/123/72 85/121/72 78/122/72
f 81/291/73 86/123/73 73/107/73
f 89/142/74 81/105/74 90/125/74
f 98/135/77 90/125/77 99/128/77
f 90/125/78 82/124/78 91/127/78
f 100/138/79 99/128/79 92/130/79
f 92/130/81 91/127/81 84/113/81
f 107/292/82 106/134/82 99/128/82
f 96/126/83 92/136/83 88/119/83
f 107/292/84 99/128/84 108/139/84
f 98/135/87 97/141/87 90/125/87
f 97/141/88 102/143/88 89/142/88
f 118/175/89 110/144/89 113/146/89
f 95/157/90 87/147/90 93/117/90
f 93/117/91 94/116/91 101/149/91
f 105/145/92 97/150/92 106/152/92
f 104/293/94 100/138/94 96/154/94
f 93/117/96 101/149/96 95/157/96
f 115/166/97 114/158/97 107/159/97
f 110/144/98 102/160/98 105/145/98
f 109/172/100 111/163/100 101/165/100
f 122/10/101 114/158/101 123/34/101
f 108/294/102 112/162/102 116/167/102
f 108/294/103 100/168/103 112/162/103
f 114/158/106 113/146/106 106/152/106
f 116/180/107 115/166/107 108/170/107
f 124/192/171 116/167/171 128/171/171
f 111/163/109 109/172/109 119/174/109
f 117/173/110 109/172/110 118/175/110
f 125/186/111 117/173/111 126/18/111
f 121/19/114 113/146/114 122/10/114
f 123/34/116 115/166/116 124/181/116
f 125/186/117 127/182/117 117/173/117
f 2/26/122 7/185/122 125/186/122
f 29/8/124 37/44/124 31/187/124
f 48/100/126 44/54/126 40/53/126
f 83/129/128 82/124/128 75/97/128
f 85/121/129 87/188/129 77/110/129
f 89/142/130 94/116/130 81/105/130
f 109/172/131 101/165/131 110/144/131
f 118/175/132 113/146/132 126/18/132
f 4/25/133 9/13/133 3/190/133
f 8/177/134 1/191/134 128/171/134
f 35/50/135 34/49/135 27/30/135
f 38/66/136 30/7/136 33/58/136
f 12/24/137 1/191/137 16/39/137
f 7/295/138 2/194/138 15/35/138
f 1/33/139 12/195/139 6/6/139
f 17/2/140 9/13/140 18/11/140
f 5/5/141 4/197/141 122/10/141
f 20/40/172 12/24/172 24/38/172
f 2/194/143 3/190/143 13/36/143
f 34/59/144 33/58/144 26/16/144
